%YAML 1.1
%TAG !u! tag:unity3d.com,2011:
--- !u!114 &11400000
MonoBehaviour:
  m_ObjectHideFlags: 0
  m_CorrespondingSourceObject: {fileID: 0}
  m_PrefabInstance: {fileID: 0}
  m_PrefabAsset: {fileID: 0}
  m_GameObject: {fileID: 0}
  m_Enabled: 1
  m_EditorHideFlags: 0
  m_Script: {fileID: 11500000, guid: 4f8df3a6b207bea4c8c19312e9a50d22, type: 3}
  m_Name: Heavy
  m_EditorClassIdentifier: 
  prefab: {fileID: 1094840334677141343, guid: 996e427dfa98e6c43a06029ebefd99c6, type: 3}
  attributes:
    GunCoolingTime: 0.9
    MissleSpeed: 10
    MissleDamage: 100
    ShipSpeed: 5
    ShipHealth: 150
    ShipPoints: 300
