%YAML 1.1
%TAG !u! tag:unity3d.com,2011:
--- !u!114 &11400000
MonoBehaviour:
  m_ObjectHideFlags: 0
  m_CorrespondingSourceObject: {fileID: 0}
  m_PrefabInstance: {fileID: 0}
  m_PrefabAsset: {fileID: 0}
  m_GameObject: {fileID: 0}
  m_Enabled: 1
  m_EditorHideFlags: 0
  m_Script: {fileID: 11500000, guid: 4f8df3a6b207bea4c8c19312e9a50d22, type: 3}
  m_Name: Light
  m_EditorClassIdentifier: 
  prefab: {fileID: 1094840334677141343, guid: 5f68da1c1cab86144aa89c4efefe3e7c, type: 3}
  attributes:
    GunCoolingTime: 0.7
    MissleSpeed: 10
    MissleDamage: 50
    ShipSpeed: 7
    ShipHealth: 50
    ShipPoints: 50
